..C..1..71..G.. = -20.70 Multidomain 
..C..1..71..G.. = -20.70 0x0 
..G..2..70..U.. = -19.30 0x0 
..C..3..69..G.. = -16.80 0x0 
..U..4..68..A.. = -14.70 0x0 
..U..5..67..A.. = -13.80 0x0 
..C..6..66..G.. = -11.40 0x0 
..A..7..65..U.. = -9.30 0x0 
..U..8..64..A.. = -8.20 0x0 
..A..9..63..U.. = -6.90 multi 
..U..13..33..A.. = -4.40 0x0 
..C..14..32..G.. = -2.00 0x0 
..C..15..31..G.. = 1.30 0x0 
..U..16..30..G.. = 3.40 0x0 
..A..17..29..U.. = 4.40 0x0 
..A..18..28..U.. = 5.30 hairpin 
..C..42..60..G.. = -4.80 0x0 
..A..43..59..U.. = -2.70 0x0 
..A..44..58..U.. = -1.80 0x0 
..G..45..57..C.. = 0.30 0x0 
..A..46..56..U.. = 2.70 0x0 
..G..47..55..C.. = 4.80 hairpin 
