{
<<<<<<< HEAD
    "ContextAfold": "/home/arrekin/Desktop/bioinfproj/biologyproject/projectSource/Logic;1",
    "SuperProgram": "D:/PythonProjects/BioinformatykaProjekt/projectSource/config.json;0",
    "Program9": ";0",
    "ContextAFold": ";0",
    "ToNieProgram": ";0",
    "13": "D:/PythonProjects/BioinformatykaProjekt/projectSource/config.json;0",
    "Program8": "D:/PythonProjects/BioinformatykaProjekt/projectSource/config.json;0",
    "ContraFold": ";0",
    "DataFilePath": "/home/arrekin/Desktop/bioinfproj/biologyproject/example.fa",
    "Program11": "D:/PythonProjects/BioinformatykaProjekt/projectSource/config.json;0",
    "Program12": "D:/PythonProjects/BioinformatykaProjekt/projectSource/config.json;0",
    "Afold": "/home/arrekin/Desktop/bioinfproj/biologyproject/Afold;1",
    "Program4": "/home/arrekin/Desktop/bioinfproj/biologyproject/projectSource/Logic;0",
    "Program6": "D:/PythonProjects/BioinformatykaProjekt/projectSource/config.json;0",
    "Program10": "D:/PythonProjects/BioinformatykaProjekt/projectSource/config.json;0",
    "Fold": ";0",
    "Program7": "D:/PythonProjects/BioinformatykaProjekt/projectSource/config.json;0",
    "Program13": ";0",
    "Program5": "D:/PythonProjects/BioinformatykaProjekt/projectSource/config.json;0"
=======
    "Program8": "D:/PythonProjects/BioinformatykaProjekt/projectSource/config.json;0",
    "Program11": "D:/PythonProjects/BioinformatykaProjekt/projectSource/config.json;0",
    "Program12": "D:/PythonProjects/BioinformatykaProjekt/projectSource/config.json;0",
    "Afold": "/home/michalsienko/studia/INFORMATYKA/ROK4/BioInformatyka/Programes/Afold;0",
    "13": "D:/PythonProjects/BioinformatykaProjekt/projectSource/config.json;0",
    "Program7": "D:/PythonProjects/BioinformatykaProjekt/projectSource/config.json;0",
    "ToNieProgram": ";0",
    "Program10": "D:/PythonProjects/BioinformatykaProjekt/projectSource/config.json;0",
    "Program13": ";0",
    "SuperProgram": "D:/PythonProjects/BioinformatykaProjekt/projectSource/config.json;0",
    "Program5": "D:/PythonProjects/BioinformatykaProjekt/projectSource/config.json;0",
    "Program9": ";0",
    "ContextAfold": "/home/michalsienko/studia/INFORMATYKA/ROK4/BioInformatyka/Programes/ContextFold;0",
    "DataFilePath": "/home/michalsienko/studia/INFORMATYKA/ROK4/BioInformatyka/biologyproject/example.fa",
    "Fold": ";0",
    "HotKnots": "/home/michalsienko/studia/INFORMATYKA/ROK4/BioInformatyka/Programes/HotKnots_v2.0;1",
    "ContraFold": ";0",
    "Program6": "D:/PythonProjects/BioinformatykaProjekt/projectSource/config.json;0"
>>>>>>> 5fba1b82136d6325c6fa2a0c6d396de4ba7cf111
}